…
``` r
insta_df <- data(instacart)
```

``` r
instacart %>% 
  group_by(aisle) %>%
  summarize(
    n_obs = n()
    ) %>%
  arrange(desc(n_obs))
```

    ## # A tibble: 134 × 2
    ##    aisle                          n_obs
    ##    <chr>                          <int>
    ##  1 fresh vegetables              150609
    ##  2 fresh fruits                  150473
    ##  3 packaged vegetables fruits     78493
    ##  4 yogurt                         55240
    ##  5 packaged cheese                41699
    ##  6 water seltzer sparkling water  36617
    ##  7 milk                           32644
    ##  8 chips pretzels                 31269
    ##  9 soy lactosefree                26240
    ## 10 bread                          23635
    ## # ℹ 124 more rows
…
``` r
aisle_df %>% 
  group_by(add_to_cart_order) %>%
  summarize(count = n())
```

    ## # A tibble: 58 × 2
    ##    add_to_cart_order count
    ##                <int> <int>
    ##  1                 1  2295
    ##  2                 2  2584
    ##  3                 3  2552
    ##  4                 4  2546
    ##  5                 5  2364
    ##  6                 6  2129
    ##  7                 7  1917
    ##  8                 8  1786
    ##  9                 9  1649
    ## 10                10  1420
    ## # ℹ 48 more rows

``` r
aisle_df
```

    ## # A tibble: 31,064 × 15
    ## # Groups:   aisle [3]
    ##    order_id product_id add_to_cart_order reordered user_id eval_set order_number
    ##       <int>      <int>             <int>     <int>   <int> <chr>           <int>
    ##  1       38      21616                 4         1   42756 train               6
    ##  2       96      39275                 7         1   17227 train               7
    ##  3       98      18117                30         1   56463 train              41
    ##  4      170      18394                 1         1  182389 train               7
    ##  5      170      11182                16         0  182389 train               7
    ##  6      631      42265                 3         1  184099 train               7
    ##  7      878      21903                 5         1   61911 train               9
    ##  8     1001      43961                 4         1   47475 train              15
    ##  9     1143      27966                 4         1   79725 train              11
    ## 10     1143      27999                13         0   79725 train              11
    ## # ℹ 31,054 more rows
    ## # ℹ 8 more variables: order_dow <int>, order_hour_of_day <int>,
    ## #   days_since_prior_order <int>, product_name <chr>, aisle_id <int>,
    ## #   department_id <int>, aisle <chr>, department <chr>
…
